{
	"users": [
		{
			"id": 1,
			"date": "11.03.1987",
			"name": "Куклина Мария Ивановна",
			"email": "kyklina@mail.ru",
			"phone": "+79223625999",
			"distance": 5,
			"payment": 500,
			"dateRegister": "15.11.2020"
		},
		{
			"id": 2,
			"date": "8.05.1997",
			"name": "Мокрушина Галина Юрьевна",
			"email": "mokrushina@mail.ru",
			"phone": "+79881125999",
			"distance": 10,
			"payment": 300,
			"dateRegister": "19.11.2020"
		},
		{
			"id": 3,
			"date": "24.01.1886",
			"name": "Ольга Сергеевна Заводская",
			"email": "olga.zavodckaia@mail.ru",
			"phone": "+79008011000",
			"distance": 3,
			"payment": 1500,
			"dateRegister": "23.11.2020"
		},
		{
			"id": 4,
			"date": "5.02.1900",
			"name": "Ира Сергеевна Заводская",
			"email": "ira.zavodckaia@mail.ru",
			"phone": "+79008011000",
			"distance": 5,
			"payment": 1500,
			"dateRegister": "23.11.2020"
		},
		{
			"id": 5,
			"date": "18.11.1955",
			"name": "Дмитрий Дмитриев Дмитриевич",
			"email": "dmdm@mail.ru",
			"phone": "+79008011000",
			"distance": 5,
			"payment": 300,
			"dateRegister": "23.11.2020"
		},
		{
			"id": 6,
			"date": "24.01.1886",
			"name": "Ольга Сергеевна Заводская",
			"email": "olga.zavodckaia@mail.ru",
			"phone": "+79008011000",
			"distance": 3,
			"payment": 800,
			"dateRegister": "23.11.2020"
		},
		{
			"id": 7,
			"date": "24.01.1956",
			"name": "Сергей Сергеев Сергеевич",
			"email": "sergserg@mail.ru",
			"phone": "+79884488448",
			"distance": 10,
			"payment": 1500,
			"dateRegister": "28.1.2020"
		}
	]
}